{
  "images" : [
    {
      "idiom" : "universal",
      "filename" : "mountain-ADDRCC.png",
      "scale" : "1x"
    },
    {
      "idiom" : "universal",
      "filename" : "mountain-ADDRCC@2x.png",
      "scale" : "2x"
    },
    {
      "idiom" : "universal",
      "filename" : "mountain-ADDRCC@3x.png",
      "scale" : "3x"
    }
  ],
  "info" : {
    "version" : 1,
    "author" : "xcode"
  }
}